D:\Coding\eclipse-workspace-study\demo\src\test\java\anhpt28\selenium\demo\common\InputConstants.java
D:\Coding\eclipse-workspace-study\demo\src\test\java\anhpt28\selenium\demo\Guru99ExcellTestCase.java
D:\Coding\eclipse-workspace-study\demo\src\test\java\anhpt28\selenium\demo\utils\ElementUtils.java
D:\Coding\eclipse-workspace-study\demo\src\test\java\anhpt28\selenium\demo\common\XpathConstants.java
D:\Coding\eclipse-workspace-study\demo\src\test\java\anhpt28\selenium\demo\Guru99DataProviderTestCase.java
D:\Coding\eclipse-workspace-study\demo\src\test\java\anhpt28\selenium\demo\common\WebsiteTestConstants.java
D:\Coding\eclipse-workspace-study\demo\src\test\java\anhpt28\selenium\demo\model\Guru99BankManagerHomePage.java
D:\Coding\eclipse-workspace-study\demo\src\test\java\anhpt28\selenium\demo\log\LogFactory.java
D:\Coding\eclipse-workspace-study\demo\src\test\java\anhpt28\selenium\demo\utils\WebDriverUtils.java
D:\Coding\eclipse-workspace-study\demo\src\test\java\anhpt28\selenium\demo\Guru99LoginTest.java
D:\Coding\eclipse-workspace-study\demo\src\test\java\anhpt28\selenium\demo\TestCase.java
D:\Coding\eclipse-workspace-study\demo\src\test\java\anhpt28\selenium\demo\utils\ExcellReader.java
D:\Coding\eclipse-workspace-study\demo\src\test\java\anhpt28\selenium\demo\model\Guru99Account.java
D:\Coding\eclipse-workspace-study\demo\src\test\java\anhpt28\selenium\demo\model\Guru99BankAgileProjectPage.java
D:\Coding\eclipse-workspace-study\demo\src\test\java\anhpt28\selenium\demo\model\Guru99BankHomePage.java
D:\Coding\eclipse-workspace-study\demo\src\test\java\anhpt28\selenium\demo\utils\DataReaderUtils.java
